module gitlab.com/factorio-item-browser/factorio-icon-renderer.git

go 1.22

require (
	github.com/anthonynsimon/bild v0.13.0
	github.com/stretchr/testify v1.9.0
)

require (
	github.com/davecgh/go-spew v1.1.1 // indirect
	github.com/pmezard/go-difflib v1.0.0 // indirect
	github.com/stretchr/objx v0.5.2 // indirect
	gopkg.in/yaml.v3 v3.0.1 // indirect
)
