{
  "icons": [
    {
      "icon": "__base__/graphics/icons/fluid/barreling/barrel-fill.png",
      "icon_size": 64,
      "icon_mipmaps": 4
    },
    {
      "icon": "__base__/graphics/icons/fluid/barreling/barrel-fill-side-mask.png",
      "icon_size": 64,
      "icon_mipmaps": 4,
      "tint": {
        "r": 0,
        "g": 0.34,
        "b": 0.6,
        "a": 0.75
      }
    },
    {
      "icon": "__base__/graphics/icons/fluid/barreling/barrel-fill-top-mask.png",
      "icon_size": 64,
      "icon_mipmaps": 4,
      "tint": {
        "r": 0.7,
        "g": 0.7,
        "b": 0.7,
        "a": 0.75
      }
    },
    {
      "icon": "__base__/graphics/icons/fluid/water.png",
      "icon_size": 64,
      "icon_mipmaps": 4,
      "scale": 0.25,
      "shift": [
        -8,
        -8
      ]
    }
  ],
  "icon_size": 64,
  "icon_mipmaps": 4
}